{
	"ImportPath": "restaurant-backend",
	"GoVersion": "go1.14",
	"GodepVersion": "v80",
	"Deps": [
		{
			"ImportPath": "github.com/jinzhu/gorm",
			"Comment": "v1.9.15",
			"Rev": "bf55f358c25885d2f4dc97d8a3a46b0c445288b9"
		},
		{
			"ImportPath": "github.com/jinzhu/gorm/dialects/sqlite",
			"Comment": "v1.9.15",
			"Rev": "bf55f358c25885d2f4dc97d8a3a46b0c445288b9"
		},
		{
			"ImportPath": "github.com/jinzhu/inflection",
			"Comment": "v1.0.0-5-g970f05d",
			"Rev": "970f05d9c0e1f5c179cedc3a0ad94010958733ab"
		},
		{
			"ImportPath": "github.com/mattn/go-sqlite3",
			"Comment": "v1.14.0-3-g4c2df3c",
			"Rev": "4c2df3cc4614a8001c1afdebcbda0fcf6e045719"
		}
	]
}
